{
  "notifications": {
    "current_page": 1,
    "data": [
      {
        "id": 1,
        "order_id": null,
        "customer_id": 4,
        "seller_id": null,
        "title": "Order Is placed.",
        "url": "https://random.imagecdn.app/500/150",        "description": null,
        "read_status": 0,
        "super_admin_read_status": 0,
        "created_at": "2022-11-14T10:21:06.000000Z",
        "updated_at": "2022-11-13T06:19:42.000000Z",
        "order": null,
        "type_user": "seller"
      },
      {
        "id": 5,
        "order_id": null,
        "customer_id": 4,
        "seller_id": null,
        "title": "Order Is placed.",
        "url": "/my-purchase-order-details/eyJpdiI6IkNSSUcyVUdxVU1ySEU5MDdldmFpL2c9PSIsInZhbHVlIjoiZlBNdXF0cjFYckNRYWw3UVRZWlo3QT09IiwibWFjIjoiODE5NTc3OTQ4Yjc2NjRkYzVjMjEwMDY4ZmVlODI0NDczYmMyZTVhNDUzMTA0M2FlMjllNzEyNjM2MGMxZWJmMCIsInRhZyI6IiJ9",
        "description": null,
        "read_status": 0,
        "super_admin_read_status": 0,
        "created_at": "2022-11-14T10:21:06.000000Z",
        "updated_at": "2022-11-13T06:19:42.000000Z",
        "order": null
      },
      {
        "id": 9,
        "order_id": null,
        "customer_id": 4,
        "seller_id": null,
        "title": "Order Is placed.",
        "url": "/my-purchase-order-details/eyJpdiI6IlRzd3hHVzhKQlh0N3Zwb1lhT09mZUE9PSIsInZhbHVlIjoid0h2amZJK2NlbzRodE0wVzV1b0ZyZz09IiwibWFjIjoiODQ4ZjVjMGY1M2E3MTk1M2FmYTUwZWYzNjdmZTViZjM0ZDMxMTM3ZTgxMTcwYTI0MGE0OGM1M2M3N2FkYmY1NCIsInRhZyI6IiJ9",
        "description": null,
        "read_status": 0,
        "super_admin_read_status": 0,
        "created_at": "2022-11-14T10:21:06.000000Z",
        "updated_at": "2022-11-13T06:19:42.000000Z",
        "order": null
      },
      {
        "id": 13,
        "order_id": null,
        "customer_id": 4,
        "seller_id": null,
        "title": "Offline recharge successful",
        "url": "/wallet/customer/my-wallet-index",
        "description": null,
        "read_status": 0,
        "super_admin_read_status": 0,
        "created_at": "2022-11-14T10:21:06.000000Z",
        "updated_at": "2022-11-14T06:19:42.000000Z",
        "order": null
      },
      {
        "id": 17,
        "order_id": null,
        "customer_id": 4,
        "seller_id": null,
        "title": "Order Is placed.",
        "url": "/my-purchase-order-details/eyJpdiI6ImlmZWJGREhJVHFMM2QvQ1E2a0FBMnc9PSIsInZhbHVlIjoiSDY4UldQc2I0eHVSY0g5UDAvM25ZUT09IiwibWFjIjoiM2UzZDExNDMwMDQxNTEwMzBjMTQ1Y2U1MWNkYmE4NWVhYTdjYjc5MTBiMTQzZTU3OTg0MjA3YTM0ZGMwMGQxZSIsInRhZyI6IiJ9",
        "description": null,
        "read_status": 1,
        "super_admin_read_status": 0,
        "created_at": "2022-07-27T08:30:11.000000Z",
        "updated_at": "2022-11-13T06:19:42.000000Z",
        "order": null
      },
      {
        "id": 21,
        "order_id": null,
        "customer_id": 4,
        "seller_id": null,
        "title": "Order Is placed.",
        "url": "/my-purchase-order-details/eyJpdiI6ImR2ZG03ZlJtOVdwV2N3VzNJa25POWc9PSIsInZhbHVlIjoiQVdCUHRwaGdNbzlYcVUyZ1N0dFNjUT09IiwibWFjIjoiNTE2NmM5NzZiOWRlYzViMzQ1YmE0MWI0ZTdlM2IwZjFmNWUzZjIxZGRkZjg2ZTI0OGQzMjc0NmVkMzlkMDAzOCIsInRhZyI6IiJ9",
        "description": null,
        "read_status": 1,
        "super_admin_read_status": 0,
        "created_at": "2022-07-27T09:31:48.000000Z",
        "updated_at": "2022-11-13T06:19:42.000000Z",
        "order": null
      },
      {
        "id": 25,
        "order_id": null,
        "customer_id": 4,
        "seller_id": null,
        "title": "Order Is placed.",
        "url": "/my-purchase-order-details/eyJpdiI6IjE4Y09SbmtaN3U2dEFMN2xUcjI4RHc9PSIsInZhbHVlIjoiSGZhYURJKzEyVGhrUHlWaVFwdkwvZz09IiwibWFjIjoiZTEwMDZlMzllYWNjMjVkYmQyOTNkZTEwMzhmNzZlNzk0NDk4NjIzNjk5MzZiMjFiY2ZmMzcyODUwZjhlY2NlMyIsInRhZyI6IiJ9",
        "description": null,
        "read_status": 1,
        "super_admin_read_status": 0,
        "created_at": "2022-07-27T09:39:51.000000Z",
        "updated_at": "2022-11-13T06:19:42.000000Z",
        "order": null
      },
      {
        "id": 29,
        "order_id": null,
        "customer_id": 4,
        "seller_id": null,
        "title": "Order Is placed.",
        "url": "/my-purchase-order-details/eyJpdiI6IjAvenc4OGtwb0d4R1VpOVhnRFYybWc9PSIsInZhbHVlIjoiSXJlMFR1WVZYQzFobmdEREtSRnZzQT09IiwibWFjIjoiMmYwMzdlZTE1MTljZDg3MjU1ODRlZTJkN2E4NDg4ZTc5MzJiMjkyMTcyZDk2MGViZjdhOGMwZTdjYmFhYTg1MiIsInRhZyI6IiJ9",
        "description": null,
        "read_status": 1,
        "super_admin_read_status": 0,
        "created_at": "2022-07-27T09:53:24.000000Z",
        "updated_at": "2022-11-13T06:19:42.000000Z",
        "order": null
      },
      {
        "id": 33,
        "order_id": null,
        "customer_id": 4,
        "seller_id": null,
        "title": "Order Confirmed",
        "url": "/my-purchase-order-details/eyJpdiI6ImcvVHJGUmxpdXNKbVVIemF0aER4cnc9PSIsInZhbHVlIjoiZWlsZ2xubnhrNnFXM2x6a3hDTTZXZz09IiwibWFjIjoiNzczZmYwMGY0MzNjYjA5ODNmY2JjMzNhOWYyMjEyZDA4ODRiYjQ3MDgyMWVmYjAzZWQ1NWQwNmY0ZThkZWI1MSIsInRhZyI6IiJ9",
        "description": null,
        "read_status": 1,
        "super_admin_read_status": 0,
        "created_at": "2022-07-27T10:01:16.000000Z",
        "updated_at": "2022-11-13T06:19:42.000000Z",
        "order": null
      },
      {
        "id": 37,
        "order_id": null,
        "customer_id": 4,
        "seller_id": null,
        "title": "Order Delivered",
        "url": "/my-purchase-order-details/eyJpdiI6Img4MFZBRW0vWUw4cUJhUlRsQTRWRmc9PSIsInZhbHVlIjoiZDQwd2Fneit6Vy9JY2dhTStxM1JUZz09IiwibWFjIjoiNjI2Y2FiMTk5ODY1NzhjYTNjZTg2NzQ4MmZmOTU2MWY5YjhiZmFhNzJlMTQwMWQwOGQxZWRhYmFlNjllYTExMiIsInRhZyI6IiJ9",
        "description": null,
        "read_status": 1,
        "super_admin_read_status": 0,
        "created_at": "2022-07-27T10:03:31.000000Z",
        "updated_at": "2022-11-13T06:19:42.000000Z",
        "order": null
      }
    ],
    "first_page_url": "https://fix-press.com/api/user-notifications?page=1",
    "from": 1,
    "last_page": 3,
    "last_page_url": "https://fix-press.com/api/user-notifications?page=3",
    "links": [
      {
        "url": null,
        "label": "&laquo; Previous",
        "active": false
      },
      {
        "url": "https://fix-press.com/api/user-notifications?page=1",
        "label": "1",
        "active": true
      },
      {
        "url": "https://fix-press.com/api/user-notifications?page=2",
        "label": "2",
        "active": false
      },
      {
        "url": "https://fix-press.com/api/user-notifications?page=3",
        "label": "3",
        "active": false
      },
      {
        "url": "https://fix-press.com/api/user-notifications?page=2",
        "label": "Next &raquo;",
        "active": false
      }
    ],
    "next_page_url": "https://fix-press.com/api/user-notifications?page=2",
    "path": "https://fix-press.com/api/user-notifications",
    "per_page": 10,
    "prev_page_url": null,
    "to": 10,
    "total": 28
  }
}